{
  "files": {
    "main.js": "/static/js/main.a3a3eeb2.js",
    "index.html": "/index.html",
    "main.a3a3eeb2.js.map": "/static/js/main.a3a3eeb2.js.map"
  },
  "entrypoints": [
    "static/js/main.a3a3eeb2.js"
  ]
}